%YAML 1.1
%TAG !u! tag:unity3d.com,2011:
--- !u!114 &11400000
MonoBehaviour:
  m_ObjectHideFlags: 0
  m_CorrespondingSourceObject: {fileID: 0}
  m_PrefabInstance: {fileID: 0}
  m_PrefabAsset: {fileID: 0}
  m_GameObject: {fileID: 0}
  m_Enabled: 1
  m_EditorHideFlags: 0
  m_Script: {fileID: 11500000, guid: bd265407bc6b1324fbcac7f786dce247, type: 3}
  m_Name: Bow Blue Projectile
  m_EditorClassIdentifier: 
  animatorOverride: {fileID: 22100000, guid: 03d74406f480d7d49a3fa0d62a5dd980, type: 2}
  equippedPrefab: {fileID: 9153026999844278277, guid: 62cee57d381e90a4b8aff96bdb7fa58d,
    type: 3}
  weaponRange: 20
  weaponDamage: 10
  percentageBonus: 0
  isRightHanded: 0
  projectile: {fileID: 5884654387045268306, guid: 219d9bb4d12d7524188749d00e2b2182,
    type: 3}
