%YAML 1.1
%TAG !u! tag:unity3d.com,2011:
--- !u!114 &8673571708123249828
MonoBehaviour:
  m_ObjectHideFlags: 0
  m_CorrespondingSourceObject: {fileID: 0}
  m_PrefabInstance: {fileID: 0}
  m_PrefabAsset: {fileID: 0}
  m_GameObject: {fileID: 2302457091093092515}
  m_Enabled: 1
  m_EditorHideFlags: 0
  m_Script: {fileID: 11500000, guid: 1cd9f563fdbd5c24980c727480fd2716, type: 3}
  m_Name: 
  m_EditorClassIdentifier: 
--- !u!1001 &2302457091092932355
PrefabInstance:
  m_ObjectHideFlags: 0
  serializedVersion: 2
  m_Modification:
    m_TransformParent: {fileID: 0}
    m_Modifications:
    - target: {fileID: 180128, guid: 6586ff0f14125534cae2f5d8f04b7871, type: 3}
      propertyPath: m_Name
      value: Fireball Impact
      objectReference: {fileID: 0}
    - target: {fileID: 403952, guid: 6586ff0f14125534cae2f5d8f04b7871, type: 3}
      propertyPath: m_LocalPosition.x
      value: 35.315834
      objectReference: {fileID: 0}
    - target: {fileID: 403952, guid: 6586ff0f14125534cae2f5d8f04b7871, type: 3}
      propertyPath: m_LocalPosition.y
      value: 1.5198679
      objectReference: {fileID: 0}
    - target: {fileID: 403952, guid: 6586ff0f14125534cae2f5d8f04b7871, type: 3}
      propertyPath: m_LocalPosition.z
      value: 28.619843
      objectReference: {fileID: 0}
    - target: {fileID: 403952, guid: 6586ff0f14125534cae2f5d8f04b7871, type: 3}
      propertyPath: m_LocalRotation.x
      value: 0
      objectReference: {fileID: 0}
    - target: {fileID: 403952, guid: 6586ff0f14125534cae2f5d8f04b7871, type: 3}
      propertyPath: m_LocalRotation.y
      value: 0
      objectReference: {fileID: 0}
    - target: {fileID: 403952, guid: 6586ff0f14125534cae2f5d8f04b7871, type: 3}
      propertyPath: m_LocalRotation.z
      value: 0
      objectReference: {fileID: 0}
    - target: {fileID: 403952, guid: 6586ff0f14125534cae2f5d8f04b7871, type: 3}
      propertyPath: m_LocalRotation.w
      value: 1
      objectReference: {fileID: 0}
    - target: {fileID: 403952, guid: 6586ff0f14125534cae2f5d8f04b7871, type: 3}
      propertyPath: m_RootOrder
      value: 0
      objectReference: {fileID: 0}
    - target: {fileID: 403952, guid: 6586ff0f14125534cae2f5d8f04b7871, type: 3}
      propertyPath: m_LocalEulerAnglesHint.x
      value: 0
      objectReference: {fileID: 0}
    - target: {fileID: 403952, guid: 6586ff0f14125534cae2f5d8f04b7871, type: 3}
      propertyPath: m_LocalEulerAnglesHint.y
      value: 0
      objectReference: {fileID: 0}
    - target: {fileID: 403952, guid: 6586ff0f14125534cae2f5d8f04b7871, type: 3}
      propertyPath: m_LocalEulerAnglesHint.z
      value: 0
      objectReference: {fileID: 0}
    - target: {fileID: 19860484, guid: 6586ff0f14125534cae2f5d8f04b7871, type: 3}
      propertyPath: startDelay.scalar
      value: 0
      objectReference: {fileID: 0}
    - target: {fileID: 19860484, guid: 6586ff0f14125534cae2f5d8f04b7871, type: 3}
      propertyPath: InitialModule.startLifetime.scalar
      value: 0.4
      objectReference: {fileID: 0}
    - target: {fileID: 19860484, guid: 6586ff0f14125534cae2f5d8f04b7871, type: 3}
      propertyPath: InitialModule.startLifetime.minScalar
      value: 0.1
      objectReference: {fileID: 0}
    - target: {fileID: 19860484, guid: 6586ff0f14125534cae2f5d8f04b7871, type: 3}
      propertyPath: InitialModule.startSpeed.minMaxState
      value: 3
      objectReference: {fileID: 0}
    - target: {fileID: 19860484, guid: 6586ff0f14125534cae2f5d8f04b7871, type: 3}
      propertyPath: InitialModule.startSpeed.scalar
      value: 10
      objectReference: {fileID: 0}
    - target: {fileID: 19860484, guid: 6586ff0f14125534cae2f5d8f04b7871, type: 3}
      propertyPath: InitialModule.startSpeed.minScalar
      value: 2
      objectReference: {fileID: 0}
    - target: {fileID: 19860484, guid: 6586ff0f14125534cae2f5d8f04b7871, type: 3}
      propertyPath: InitialModule.startSize.minMaxState
      value: 3
      objectReference: {fileID: 0}
    - target: {fileID: 19860484, guid: 6586ff0f14125534cae2f5d8f04b7871, type: 3}
      propertyPath: InitialModule.startSize.minScalar
      value: 0.1
      objectReference: {fileID: 0}
    - target: {fileID: 19860484, guid: 6586ff0f14125534cae2f5d8f04b7871, type: 3}
      propertyPath: InitialModule.startSizeY.minMaxState
      value: 3
      objectReference: {fileID: 0}
    - target: {fileID: 19860484, guid: 6586ff0f14125534cae2f5d8f04b7871, type: 3}
      propertyPath: InitialModule.startSizeZ.minMaxState
      value: 3
      objectReference: {fileID: 0}
    - target: {fileID: 19860484, guid: 6586ff0f14125534cae2f5d8f04b7871, type: 3}
      propertyPath: ShapeModule.type
      value: 4
      objectReference: {fileID: 0}
    - target: {fileID: 19860484, guid: 6586ff0f14125534cae2f5d8f04b7871, type: 3}
      propertyPath: ShapeModule.angle
      value: 47.48
      objectReference: {fileID: 0}
    - target: {fileID: 19860484, guid: 6586ff0f14125534cae2f5d8f04b7871, type: 3}
      propertyPath: ShapeModule.m_Rotation.x
      value: 180
      objectReference: {fileID: 0}
    - target: {fileID: 19860484, guid: 6586ff0f14125534cae2f5d8f04b7871, type: 3}
      propertyPath: ShapeModule.radius.value
      value: 0.44
      objectReference: {fileID: 0}
    - target: {fileID: 19860484, guid: 6586ff0f14125534cae2f5d8f04b7871, type: 3}
      propertyPath: VelocityModule.enabled
      value: 0
      objectReference: {fileID: 0}
    - target: {fileID: 19860484, guid: 6586ff0f14125534cae2f5d8f04b7871, type: 3}
      propertyPath: VelocityModule.z.maxCurve.m_Curve.Array.data[0].value
      value: 0.19819671
      objectReference: {fileID: 0}
    - target: {fileID: 19860484, guid: 6586ff0f14125534cae2f5d8f04b7871, type: 3}
      propertyPath: VelocityModule.z.minCurve.m_Curve.Array.data[0].value
      value: -0.6036046
      objectReference: {fileID: 0}
    - target: {fileID: 19860484, guid: 6586ff0f14125534cae2f5d8f04b7871, type: 3}
      propertyPath: VelocityModule.z.minCurve.m_Curve.Array.data[1].value
      value: -0.3005743
      objectReference: {fileID: 0}
    - target: {fileID: 19860484, guid: 6586ff0f14125534cae2f5d8f04b7871, type: 3}
      propertyPath: ShapeModule.radiusThickness
      value: 1
      objectReference: {fileID: 0}
    - target: {fileID: 19904564, guid: 6586ff0f14125534cae2f5d8f04b7871, type: 3}
      propertyPath: m_Materials.Array.data[1]
      value: 
      objectReference: {fileID: 2100000, guid: f1b0fea076fb0574d868f6e3d9523f52, type: 2}
    m_RemovedComponents: []
  m_SourcePrefab: {fileID: 100100000, guid: 6586ff0f14125534cae2f5d8f04b7871, type: 3}
--- !u!1 &2302457091093092515 stripped
GameObject:
  m_CorrespondingSourceObject: {fileID: 180128, guid: 6586ff0f14125534cae2f5d8f04b7871,
    type: 3}
  m_PrefabInstance: {fileID: 2302457091092932355}
  m_PrefabAsset: {fileID: 0}
